A Modern Day Comparison of 3 Heat Map Packages - Part 2 - Sarah Codes
…
df

## # A tibble: 50 x 13
##    State   `2004-05` `2005-06` `2006-07` `2007-08` `2008-09` `2009-10` `2010-11`
##    <chr>   <chr>     <chr>     <chr>     <chr>     <chr>     <chr>     <chr>    
##  1 Alabama $5,683    $5,841    $5,753    $6,008    $6,475    $7,189    $8,071   
##  2 Alaska  $4,328    $4,633    $4,919    $5,070    $5,075    $5,455    $5,759   
##  3 Arizona $5,138    $5,416    $5,481    $5,682    $6,058    $7,263    $8,840   
##  4 Arkans… $5,772    $6,082    $6,232    $6,415    $6,417    $6,627    $6,901   
##  5 Califo… $5,286    $5,528    $5,335    $5,672    $5,898    $7,259    $8,194   
##  6 Colora… $4,704    $5,407    $5,596    $6,227    $6,284    $6,948    $7,748   
##  7 Connec… $7,984    $8,249    $8,368    $8,678    $8,721    $9,371    $9,827   
##  8 Delawa… $8,353    $8,611    $8,682    $8,946    $8,995    $9,987    $10,534  
##  9 Florida $3,848    $3,924    $3,888    $3,879    $4,150    $4,783    $5,511   
## 10 Georgia $4,298    $4,492    $4,584    $4,790    $4,831    $5,550    $6,428   
## # … with 40 more rows, and 5 more variables: 2011-12 <chr>, 2012-13 <chr>,
## #   2013-14 <chr>, 2014-15 <chr>, 2015-16 <chr>
…
