Fun with Facets - A #TidyTuesday Adventure - Sarah Codes
…
The Tidyverse way ¶

Looks good! First thing I’d like to do is select the columns I’m going to use & drop the rest. I prefer to filter my data in the early steps to save computational time in the long run. Here I’m going to use select() and the column names to specify which columns I want to keep.

youtube %>%
  select(year, brand, view_count, like_count, dislike_count)

## # A tibble: 247 x 5
##     year brand     view_count like_count dislike_count
##    <dbl> <chr>          <dbl>      <dbl>         <dbl>
##  1  2018 Toyota        173929       1233            38
##  2  2020 Bud Light      47752        485            14
##  3  2006 Bud Light     142310        129            15
##  4  2018 Hynudai          198          2             0
##  5  2003 Bud Light      13741         20             3
##  6  2020 Toyota         23636        115            11
##  7  2020 Coca-Cola     304254       1470           384
##  8  2020 Kia            17892         78             6
##  9  2020 Hynudai        38385        342             7
## 10  2020 Budweiser        782          7             0
## # … with 237 more rows

Now I want to summarize my data. I’d like to find the total number of views, the total number of likes & the total number of dislikes for each year & brand combination. I’m going to use group_by() to get all the year/brand combos. Then use a summarise() command to make my new columns. For each new column, I’ll use sum() to calculate the new total. I also added in na.rm = TRUE to drop anny NAs in the data. Let’s see how it looks!

youtube %>%
  select(year, brand, view_count, like_count, dislike_count) %>%
  group_by(year, brand) %>%
  summarise(total_view = sum(view_count, na.rm = TRUE),
            total_like = sum(like_count, na.rm = TRUE),
            total_dislike = sum(dislike_count, na.rm = TRUE))

## `summarise()` has grouped output by 'year'. You can override using the `.groups` argument.

## # A tibble: 131 x 5
## # Groups:   year [21]
##     year brand     total_view total_like total_dislike
##    <dbl> <chr>          <dbl>      <dbl>         <dbl>
##  1  2000 Bud Light       6641          7             1
##  2  2000 Budweiser    3741328      25013           527
##  3  2000 E-Trade        76218        172             6
##  4  2001 Bud Light      64573        281            10
##  5  2001 Budweiser     127230        485             7
##  6  2001 Doritos         2985         15             0
##  7  2001 E-Trade       109946        179            11
##  8  2001 NFL                0          0             0
##  9  2001 Pepsi          79531        137             7
## 10  2002 Bud Light     138770        480            20
## # … with 121 more rows

Next I’m going to calculate the percentage of likes & percentage of dislikes for each row using mutate().

youtube %>%
  select(year, brand, view_count, like_count, dislike_count) %>%
  group_by(year, brand) %>%
  summarise(total_view = sum(view_count, na.rm = TRUE),
            total_like = sum(like_count, na.rm = TRUE),
            total_dislike = sum(dislike_count, na.rm = TRUE)) %>%
  mutate(pct_like = (total_like/total_view) * 100,
         pct_dislike = (total_dislike/total_view) * 100)

## `summarise()` has grouped output by 'year'. You can override using the `.groups` argument.

## # A tibble: 131 x 7
## # Groups:   year [21]
##     year brand     total_view total_like total_dislike pct_like pct_dislike
##    <dbl> <chr>          <dbl>      <dbl>         <dbl>    <dbl>       <dbl>
##  1  2000 Bud Light       6641          7             1    0.105     0.0151 
##  2  2000 Budweiser    3741328      25013           527    0.669     0.0141 
##  3  2000 E-Trade        76218        172             6    0.226     0.00787
##  4  2001 Bud Light      64573        281            10    0.435     0.0155 
##  5  2001 Budweiser     127230        485             7    0.381     0.00550
##  6  2001 Doritos         2985         15             0    0.503     0      
##  7  2001 E-Trade       109946        179            11    0.163     0.0100 
##  8  2001 NFL                0          0             0  NaN       NaN      
##  9  2001 Pepsi          79531        137             7    0.172     0.00880
## 10  2002 Bud Light     138770        480            20    0.346     0.0144 
## # … with 121 more rows
…
